{
  "format": "site-archive-pre1",
  "builtBy": "Meteor METEOR@1.0.3.1",
  "programs": [
    {
      "name": "web.browser",
      "arch": "web.browser",
      "path": "programs/web.browser/program.json"
    },
    {
      "name": "web.cordova",
      "arch": "web.cordova",
      "path": "programs/web.cordova/program.json",
      "cordovaDependencies": {
        "org.apache.cordova.console": "0.2.10",
        "org.apache.cordova.file": "1.3.0",
        "org.apache.cordova.file-transfer": "0.4.4",
        "org.apache.cordova.device": "0.2.11",
        "com.meteor.cordova-update": "https://github.com/meteor/com.meteor.cordova-update/tarball/92fe99b7248075318f6446b288995d4381d24cd2",
        "org.apache.cordova.statusbar": "0.1.7",
        "org.apache.cordova.splashscreen": "0.3.3",
        "org.apache.cordova.camera": "0.3.2",
        "org.apache.cordova.geolocation": "0.3.10"
      }
    },
    {
      "name": "server",
      "arch": "os.linux.x86_32",
      "path": "programs/server/start.sh"
    }
  ],
  "meteorRelease": "METEOR@1.0.3.1"
}