{
  "format": "web-program-pre1",
  "manifest": [
    {
      "path": "10bff4fc28dc24d045a0733de4e3730542f754ad.js",
      "where": "client",
      "type": "js",
      "cacheable": true,
      "url": "/10bff4fc28dc24d045a0733de4e3730542f754ad.js",
      "size": 933006,
      "hash": "10bff4fc28dc24d045a0733de4e3730542f754ad"
    },
    {
      "path": "a5444475803d669cb9b03a4f997e5399f29d9605.css",
      "where": "client",
      "type": "css",
      "cacheable": true,
      "url": "/a5444475803d669cb9b03a4f997e5399f29d9605.css?meteor_css_resource=true",
      "size": 164902,
      "hash": "a5444475803d669cb9b03a4f997e5399f29d9605"
    },
    {
      "path": "packages/dbarrett_dropzonejs/lib/3.10.2/images/spritemap.png",
      "where": "client",
      "type": "asset",
      "cacheable": false,
      "url": "/packages/dbarrett_dropzonejs/lib/3.10.2/images/spritemap.png",
      "size": 10208,
      "hash": "436e849acabe25ede2b7c8500e4f706bdc282066"
    },
    {
      "path": "packages/dbarrett_dropzonejs/lib/3.10.2/images/spritemap@2x.png",
      "where": "client",
      "type": "asset",
      "cacheable": false,
      "url": "/packages/dbarrett_dropzonejs/lib/3.10.2/images/spritemap@2x.png",
      "size": 35675,
      "hash": "15ba59a2688a9c3ae2a75ab8c60b8b06d8e0d3ed"
    },
    {
      "path": "packages/d0minikk_materialize-meteor/materialize/font/roboto/Roboto-Bold.ttf",
      "where": "client",
      "type": "asset",
      "cacheable": false,
      "url": "/packages/d0minikk_materialize-meteor/materialize/font/roboto/Roboto-Bold.ttf",
      "size": 127744,
      "hash": "47327df0f35e7cd7c8645874897a7449697544ae"
    },
    {
      "path": "packages/d0minikk_materialize-meteor/materialize/font/roboto/Roboto-Light.ttf",
      "where": "client",
      "type": "asset",
      "cacheable": false,
      "url": "/packages/d0minikk_materialize-meteor/materialize/font/roboto/Roboto-Light.ttf",
      "size": 126792,
      "hash": "e321c183e2b75ee19813892b7bac8d7c411cb88a"
    },
    {
      "path": "packages/d0minikk_materialize-meteor/materialize/font/roboto/Roboto-Medium.ttf",
      "where": "client",
      "type": "asset",
      "cacheable": false,
      "url": "/packages/d0minikk_materialize-meteor/materialize/font/roboto/Roboto-Medium.ttf",
      "size": 127488,
      "hash": "6060ca726b9760b76f7c347dce9d2fa1fe42ec92"
    },
    {
      "path": "packages/d0minikk_materialize-meteor/materialize/font/roboto/Roboto-Regular.ttf",
      "where": "client",
      "type": "asset",
      "cacheable": false,
      "url": "/packages/d0minikk_materialize-meteor/materialize/font/roboto/Roboto-Regular.ttf",
      "size": 126072,
      "hash": "824b5480c977a8166e177e5357d13164ccc45f47"
    },
    {
      "path": "packages/d0minikk_materialize-meteor/materialize/font/roboto/Roboto-Thin.ttf",
      "where": "client",
      "type": "asset",
      "cacheable": false,
      "url": "/packages/d0minikk_materialize-meteor/materialize/font/roboto/Roboto-Thin.ttf",
      "size": 127584,
      "hash": "173ed64528b4d010a76d8d38deb1d7e7eed58eda"
    },
    {
      "path": "packages/d0minikk_materialize-meteor/materialize/font/material-design-icons/Material-Design-Icons.eot",
      "where": "client",
      "type": "asset",
      "cacheable": false,
      "url": "/packages/d0minikk_materialize-meteor/materialize/font/material-design-icons/Material-Design-Icons.eot",
      "size": 141748,
      "hash": "5b769d54a3c3f67cdbbe0d798b018d7903d14e1b"
    },
    {
      "path": "packages/d0minikk_materialize-meteor/materialize/font/material-design-icons/Material-Design-Icons.svg",
      "where": "client",
      "type": "asset",
      "cacheable": false,
      "url": "/packages/d0minikk_materialize-meteor/materialize/font/material-design-icons/Material-Design-Icons.svg",
      "size": 330132,
      "hash": "cca9f54d4f77567a1081eb3bae99b847df7daf9b"
    },
    {
      "path": "packages/d0minikk_materialize-meteor/materialize/font/material-design-icons/Material-Design-Icons.ttf",
      "where": "client",
      "type": "asset",
      "cacheable": false,
      "url": "/packages/d0minikk_materialize-meteor/materialize/font/material-design-icons/Material-Design-Icons.ttf",
      "size": 141528,
      "hash": "a76e6a868bd3632392872272032cc22ade12090a"
    },
    {
      "path": "packages/d0minikk_materialize-meteor/materialize/font/material-design-icons/Material-Design-Icons.woff",
      "where": "client",
      "type": "asset",
      "cacheable": false,
      "url": "/packages/d0minikk_materialize-meteor/materialize/font/material-design-icons/Material-Design-Icons.woff",
      "size": 141604,
      "hash": "e7fdf38f5e9eeb468db71f39e449feb8752d0e89"
    },
    {
      "path": "app/compras.png",
      "where": "client",
      "type": "asset",
      "cacheable": false,
      "url": "/compras.png",
      "size": 7788,
      "hash": "ab3c9f702c982ac5a0000ff49a7a31dce8241f41"
    },
    {
      "path": "app/favico.ico",
      "where": "client",
      "type": "asset",
      "cacheable": false,
      "url": "/favico.ico",
      "size": 3221,
      "hash": "f624c93d6e8afe153b1260839ad5fdbf3fafda19"
    },
    {
      "path": "app/logo.png",
      "where": "client",
      "type": "asset",
      "cacheable": false,
      "url": "/logo.png",
      "size": 32753,
      "hash": "9276bc4c4abbc639ecb92c0360aad6d2dc75e23f"
    },
    {
      "path": "app/logotipo.png",
      "where": "client",
      "type": "asset",
      "cacheable": false,
      "url": "/logotipo.png",
      "size": 37328,
      "hash": "f97f990220021d210caa80754c4cc2c49d2bcd65"
    },
    {
      "path": "app/preguntas.png",
      "where": "client",
      "type": "asset",
      "cacheable": false,
      "url": "/preguntas.png",
      "size": 6071,
      "hash": "d682e27b5eec28522590ee71fa301b4316a3b8c0"
    },
    {
      "path": "app/ventas.png",
      "where": "client",
      "type": "asset",
      "cacheable": false,
      "url": "/ventas.png",
      "size": 10617,
      "hash": "f58edbb739a628d85a3b1c10f88976d793e024ca"
    },
    {
      "path": "head.html",
      "where": "internal",
      "type": "head",
      "hash": "0ce7c3ee239432a2affd90cb3d4cccfd10077a0c"
    }
  ]
}